<?xml version="1.0" encoding="utf-8"?>
<!-- Generator: Adobe Illustrator 24.0.0, SVG Export Plug-In . SVG Version: 6.00 Build 0)  -->
<svg version="1.1" id="Camada_3" xmlns="http://www.w3.org/2000/svg" xmlns:xlink="http://www.w3.org/1999/xlink" x="0px" y="0px"
	 viewBox="0 0 73.7 73.3" style="enable-background:new 0 0 73.7 73.3;" xml:space="preserve">
<style type="text/css">
	.st0{fill:#FFFFFF;}
</style>
<path class="st0" d="M60.3,45.9l-7,14.7c-0.9,1.7-2.6,2.8-4.6,2.8H7.2c-0.6,0-1-0.5-1-1c0-0.2,0-0.3,0.1-0.5l0,0
	c0.6-1.1,0.2-2.5-0.8-3.2l-0.1,0c-2.4-1.7-3.8-4.4-3.8-7.3v-3.3h37v0c0-1.1,0.9-2,2-2L60.3,45.9z M36.6,33.5h-7.2c-0.6,0-1,0.5-1,1
	v11.3c0,0.6,0.5,1,1,1h7.2c0.6,0,1-0.5,1-1V34.6C37.6,34,37.1,33.5,36.6,33.5L36.6,33.5z M48.9,37.6h-8.2c-0.6,0-1,0.5-1,1v4.1
	c0,0.6,0.5,1,1,1h8.2c0.6,0,1-0.5,1-1v-4.1C49.9,38.1,49.4,37.6,48.9,37.6L48.9,37.6z M17.1,46.9h8.2c0.6,0,1-0.5,1-1v-8.2
	c0-0.6-0.5-1-1-1h-8.2c-0.6,0-1,0.5-1,1v8.2C16,46.4,16.5,46.9,17.1,46.9z M16.5,31.5L14,33.5v13.3H3.7V33.5H0.6v-2.1h7.2v-3H5.2
	v-1.2h2.7v-6.1h1v6.1h2.7v1.2H8.8v3L16.5,31.5z M12.1,39.9H8.8V43h3.3V39.9z M12.1,35H8.8v3.1h3.3V35z"/>
</svg>
